{
  "name": "Open Sea Creatures #1",
  "description": "Friendly OpenSea Creature that enjoys long swims in the ocean.",
  "image": "ipfs://NewUriToReplace/1.png",
  "attributes": [
    {
      "trait_type": "Base", 
      "value": "Starfish"
    }, 
    {
      "trait_type": "Eyes", 
      "value": "Big"
    }, 
    {
      "trait_type": "Mouth", 
      "value": "Surprised"
    }
  ]
}
